<?xml version="1.0" encoding="UTF-8"?>
<CustomTab xmlns="http://soap.sforce.com/2006/04/metadata">
    <frameHeight>600</frameHeight>
    <hasSidebar>false</hasSidebar>
    <label>inContact Admin</label>
    <mobileReady>false</mobileReady>
    <motif>Custom22: Phone</motif>
    <url>https://incontact.incontact.com/inContact/Login.aspx</url>
    <urlEncodingKey>UTF-8</urlEncodingKey>
</CustomTab>
